{
  "contacts": [
    {
      "id": "11c6aa08-5521-45cb-868a-ae5459deda3b",
      "name": "Nishant Patel",
      "email": "user@gmail.com"
    },
    {
      "id": "12c6aa08-5521-45cb-868a-ae5459deda3b",
      "name": "Anand Patel",
      "email": "anand@gmail.com"
    },
    {
      "id": "50770e25-dc4a-4ab2-9cc6-b1d7226ebc78",
      "name": "Nishant Patel",
      "email": "Nishant@gmail.com"
    },
    {
      "id": "d64ab1b8-c4d5-4663-a7f0-517b8235ff19",
      "name": "paras",
      "email": "paras@gmail.com"
    },
    {
      "id": "fc6d3a74-c502-4d1b-be12-d3b98333e7f6",
      "name": "mark",
      "email": "mark@gmail.com"
    },
    {
      "id": "d7c61164-ef00-487f-98bc-beff08d31943",
      "name": "test",
      "email": "test@test.com"
    }
  ]
}